{
    "data": [
      {
        "id": "p-001",
        "name": "リーチ麻雀 さくら 新宿店",
        "address": "東京都新宿区歌舞伎町1-15-2 第3ビル 4F",
        "total_waiting_count": 2
      },
      {
        "id": "p-002",
        "name": "麻雀クラブ 緑一色",
        "address": "東京都豊島区西池袋1-22-5 池袋スクエア 2F",
        "total_waiting_count": 0
      },
      {
        "id": "p-003",
        "name": "ZOO 渋谷道玄坂店",
        "address": "東京都渋谷区道玄坂2-6-11 渋谷プラザ 5F",
        "total_waiting_count": 5
      },
      {
        "id": "p-004",
        "name": "健康麻雀 ひまわり",
        "address": "東京都千代田区神田須田町1-4-1 神田ビル 3F",
        "total_waiting_count": 1
      },
      {
        "id": "p-005",
        "name": "雀荘 六本木ヒルズ前",
        "address": "東京都港区六本木6-2-31 六本木ヒルズノース 1F",
        "total_waiting_count": 8
      },
      {
        "id": "p-006",
        "name": "まあじゃん ぱいん",
        "address": "神奈川県横浜市西区南幸2-12-6 ストークビル 6F",
        "total_waiting_count": 0
      }
    ],
    "meta": {
      "total_count": 124,
      "current_page": 1,
      "total_pages": 21,
      "per_page": 6
    }
  }